<?xml version="1.0" encoding="utf-8"?>
<!-- Generator: Adobe Illustrator 23.0.1, SVG Export Plug-In . SVG Version: 6.00 Build 0)  -->
<svg version="1.1" xmlns="http://www.w3.org/2000/svg" xmlns:xlink="http://www.w3.org/1999/xlink" x="0px" y="0px" width="304px"
	 height="172px" viewBox="0 0 304 172" style="enable-background:new 0 0 304 172;" xml:space="preserve">
<style type="text/css">
	.st0{fill:#151128;}
	.st1{fill:url(#SVGID_1_);}
	.st2{fill:#272359;}
	.st3{filter:url(#Adobe_OpacityMaskFilter);}
	.st4{mask:url(#SVGID_2_);}
	.st5{fill:url(#SVGID_3_);}
	.st6{fill:#554488;}
	.st7{fill:#E24329;}
	.st8{fill:#FCA326;}
	.st9{fill:#373D47;}
	.st10{fill:#37474F;}
	.st11{fill:#6B4FBB;}
	.st12{fill:#0A021E;}
	.st13{fill:#251B3F;}
	.st14{fill:url(#SVGID_4_);}
	.st15{fill:#555593;}
	.st16{fill:#FC6D26;}
	.st17{fill:url(#SVGID_5_);}
	.st18{fill:url(#SVGID_6_);}
	.st19{fill:none;stroke:#44417F;stroke-width:13;stroke-linejoin:round;stroke-miterlimit:10;}
	.st20{fill:#44417F;}
	.st21{fill:none;stroke:#44417F;stroke-width:3;stroke-linejoin:round;stroke-miterlimit:10;}
	.st22{fill:none;stroke:#413270;stroke-width:3;stroke-linejoin:round;stroke-miterlimit:10;}
	.st23{fill:#F7561E;}
	.st24{fill:#D72D20;}
	.st25{fill:#F8911E;}
	.st26{fill:none;stroke:#695C9E;stroke-width:4;stroke-linecap:round;stroke-linejoin:round;stroke-miterlimit:10;}
	.st27{opacity:0.3;fill:none;stroke:#695C9E;stroke-width:2;stroke-linecap:round;stroke-linejoin:round;stroke-miterlimit:10;}
	.st28{fill:none;stroke:#695C9E;stroke-width:4;stroke-miterlimit:10;}
	.st29{fill:#6262CC;}
	.st30{fill:#9795F9;}
	.st31{fill:#3F3177;}
	.st32{fill:#E6E6E6;}
	.st33{fill:#FFFFFF;}
	.st34{fill:#434080;}
	.st35{fill:#9795F9;stroke:#9795F9;stroke-width:3.2459;stroke-linecap:round;stroke-linejoin:round;stroke-miterlimit:10;}
	.st36{fill:none;stroke:#9795F9;stroke-width:8;stroke-linecap:round;stroke-linejoin:round;stroke-miterlimit:10;}
	.st37{fill:none;stroke:#6262CC;stroke-width:4;stroke-linecap:round;stroke-linejoin:round;stroke-miterlimit:10;}
	.st38{fill:none;stroke:#3F3177;stroke-width:4;stroke-linecap:round;stroke-linejoin:round;stroke-miterlimit:10;}
	
		.st39{fill:none;stroke:#3F3177;stroke-width:4;stroke-linecap:round;stroke-linejoin:round;stroke-miterlimit:10;stroke-dasharray:10.8195,10.8195;}
	.st40{opacity:0.45;}
	.st41{fill:none;stroke:#6262CC;stroke-miterlimit:10;}
	.st42{fill:none;stroke:#6262CC;stroke-width:3;stroke-linecap:round;stroke-miterlimit:10;}
	.st43{fill:none;stroke:url(#SVGID_7_);stroke-width:3;stroke-linecap:round;stroke-miterlimit:10;}
	.st44{fill:none;stroke:#9795F9;stroke-linecap:round;stroke-linejoin:round;stroke-miterlimit:10;}
	.st45{fill:none;stroke:url(#SVGID_8_);stroke-width:3;stroke-linecap:round;stroke-linejoin:round;stroke-miterlimit:10;}
	.st46{fill:none;stroke:url(#SVGID_9_);stroke-width:3;stroke-linecap:round;stroke-linejoin:round;stroke-miterlimit:10;}
	.st47{fill:none;stroke:url(#SVGID_10_);stroke-width:3;stroke-linecap:round;stroke-linejoin:round;stroke-miterlimit:10;}
	.st48{fill:none;stroke:url(#SVGID_11_);stroke-width:3;stroke-linecap:round;stroke-linejoin:round;stroke-miterlimit:10;}
	.st49{fill:none;stroke:url(#SVGID_12_);stroke-width:3;stroke-linecap:round;stroke-linejoin:round;stroke-miterlimit:10;}
	.st50{fill:none;stroke:#9795F9;stroke-width:2;stroke-linecap:round;stroke-linejoin:round;stroke-miterlimit:10;}
	.st51{fill:none;stroke:url(#SVGID_13_);stroke-width:3;stroke-linecap:round;stroke-linejoin:round;stroke-miterlimit:10;}
	.st52{fill:none;stroke:url(#SVGID_14_);stroke-width:3;stroke-linecap:round;stroke-linejoin:round;stroke-miterlimit:10;}
	.st53{fill:none;stroke:url(#SVGID_15_);stroke-width:3;stroke-linecap:round;stroke-linejoin:round;stroke-miterlimit:10;}
	.st54{fill:none;stroke:url(#SVGID_16_);stroke-width:3;stroke-linecap:round;stroke-linejoin:round;stroke-miterlimit:10;}
	.st55{fill:none;stroke:url(#SVGID_17_);stroke-width:3;stroke-linecap:round;stroke-linejoin:round;stroke-miterlimit:10;}
	.st56{fill:none;stroke:#000000;stroke-width:7.2695;stroke-linecap:round;stroke-linejoin:round;stroke-miterlimit:10;}
	.st57{fill:none;stroke:url(#SVGID_18_);stroke-width:0.75;stroke-miterlimit:10;}
	.st58{fill:none;stroke:url(#SVGID_19_);stroke-width:0.75;stroke-miterlimit:10;}
	.st59{fill:url(#SVGID_20_);}
	.st60{fill:url(#SVGID_21_);}
	.st61{filter:url(#Adobe_OpacityMaskFilter_1_);}
	.st62{mask:url(#SVGID_22_);}
	.st63{fill:#B7B7F9;}
	.st64{fill:url(#SVGID_23_);}
	.st65{fill:url(#SVGID_24_);}
	.st66{opacity:0.9;}
	.st67{filter:url(#Adobe_OpacityMaskFilter_2_);}
	.st68{mask:url(#SVGID_25_);}
	.st69{fill:url(#SVGID_26_);}
	.st70{fill:none;stroke:url(#SVGID_27_);stroke-width:0.75;stroke-miterlimit:10;}
	.st71{fill:none;stroke:url(#SVGID_28_);stroke-width:0.75;stroke-miterlimit:10;}
	.st72{fill:url(#SVGID_29_);}
	.st73{fill:url(#SVGID_30_);}
	.st74{fill:url(#SVGID_31_);}
	.st75{fill:none;stroke:#151128;stroke-width:4;stroke-linejoin:round;stroke-miterlimit:10;}
	.st76{fill:url(#SVGID_32_);}
	.st77{fill:none;stroke:#9795F9;stroke-width:10;stroke-linecap:round;stroke-linejoin:round;stroke-miterlimit:10;}
	.st78{fill:none;stroke:#6262CC;stroke-width:4.9191;stroke-linecap:round;stroke-linejoin:round;stroke-miterlimit:10;}
	.st79{fill:none;stroke:#3F3177;stroke-width:5;stroke-linecap:round;stroke-linejoin:round;stroke-miterlimit:10;}
	.st80{fill:none;stroke:#6262CC;stroke-width:5;stroke-linecap:round;stroke-linejoin:round;stroke-miterlimit:10;}
	.st81{fill:none;stroke:#9795F9;stroke-width:3.5272;stroke-linecap:round;stroke-linejoin:round;stroke-miterlimit:10;}
	.st82{fill:none;stroke:#6262CC;stroke-width:1.7636;stroke-linecap:round;stroke-linejoin:round;stroke-miterlimit:10;}
	.st83{fill:none;stroke:#3F3177;stroke-width:1.7636;stroke-linecap:round;stroke-linejoin:round;stroke-miterlimit:10;}
	.st84{opacity:0.6;}
	.st85{fill:none;stroke:#9795F9;stroke-width:15.2491;stroke-linecap:round;stroke-linejoin:round;stroke-miterlimit:10;}
	.st86{fill:none;stroke:#6262CC;stroke-width:7.6246;stroke-linecap:round;stroke-linejoin:round;stroke-miterlimit:10;}
	.st87{fill:none;stroke:#3F3177;stroke-width:7.6246;stroke-linecap:round;stroke-linejoin:round;stroke-miterlimit:10;}
	.st88{opacity:0.25;}
	.st89{fill:none;stroke:#9795F9;stroke-width:3.4374;stroke-linecap:round;stroke-linejoin:round;stroke-miterlimit:10;}
	.st90{fill:none;stroke:#6262CC;stroke-width:1.6909;stroke-linecap:round;stroke-linejoin:round;stroke-miterlimit:10;}
	.st91{fill:none;stroke:#3F3177;stroke-width:1.7187;stroke-linecap:round;stroke-linejoin:round;stroke-miterlimit:10;}
	.st92{fill:none;stroke:#9795F9;stroke-width:6;stroke-linecap:round;stroke-linejoin:round;stroke-miterlimit:10;}
	.st93{fill:none;stroke:#6262CC;stroke-width:3;stroke-linecap:round;stroke-linejoin:round;stroke-miterlimit:10;}
	.st94{fill:none;stroke:#3F3177;stroke-width:3;stroke-linecap:round;stroke-linejoin:round;stroke-miterlimit:10;}
	.st95{clip-path:url(#SVGID_34_);}
	.st96{fill:none;stroke:#9795F9;stroke-width:4.0573;stroke-linecap:round;stroke-linejoin:round;stroke-miterlimit:10;}
	.st97{fill:none;stroke:#6262CC;stroke-width:2.0286;stroke-linecap:round;stroke-linejoin:round;stroke-miterlimit:10;}
	.st98{fill:none;stroke:#3F3177;stroke-width:2.0286;stroke-linecap:round;stroke-linejoin:round;stroke-miterlimit:10;}
	.st99{clip-path:url(#SVGID_36_);}
	.st100{fill:none;stroke:#9795F9;stroke-width:3.2478;stroke-linecap:round;stroke-linejoin:round;stroke-miterlimit:10;}
	.st101{fill:none;stroke:#6262CC;stroke-width:1.5976;stroke-linecap:round;stroke-linejoin:round;stroke-miterlimit:10;}
	.st102{fill:none;stroke:#3F3177;stroke-width:1.6239;stroke-linecap:round;stroke-linejoin:round;stroke-miterlimit:10;}
	.st103{clip-path:url(#SVGID_38_);}
</style>
<g id="background">
</g>
<g id="logo__x2B__messaging">
	<g>
		<g>
			<g>
				<path class="st13" d="M50.6,125.9c0,10.1-5.3,14.4-16.2,14.4H18.2C7.3,140.3,2,136.1,2,125.9V87.3c0-10.1,5.3-14.4,16.2-14.4
					h16.3c10.8,0,16.2,4.3,16.2,14.4v2.8c0,0.7-0.5,1.4-1.2,1.6l-6.7,1.8c-1,0.3-2.1-0.5-2.1-1.6v-2.8c0-4.9-1.6-7-7.5-7H19.5
					c-5.9,0-7.6,2.1-7.6,7v35c0,4.9,1.7,7,7.6,7h13.6c5.9,0,7.5-2.1,7.5-7v-3.3c0-1.1,1.1-1.9,2.1-1.6l6.7,2
					c0.7,0.2,1.2,0.8,1.2,1.6V125.9z"/>
				<path class="st13" d="M64.8,131h17.1v-49H66c-0.9,0-1.6-0.7-1.6-1.6v-5.9c0-0.9,0.7-1.6,1.6-1.6h41.8c0.9,0,1.6,0.7,1.6,1.6v5.9
					c0,0.9-0.7,1.6-1.6,1.6h-16v49h17.1c0.9,0,1.6,0.7,1.6,1.6v6c0,0.9-0.7,1.6-1.6,1.6H64.8c-0.9,0-1.6-0.7-1.6-1.6v-6
					C63.1,131.8,63.9,131,64.8,131z"/>
			</g>
			<g>
				<path class="st13" d="M240.8,125.9c0,10.1-5.3,14.4-16.2,14.4h-16.3c-10.8,0-16.2-4.2-16.2-14.4V87.3c0-10.1,5.3-14.4,16.2-14.4
					h16.3c10.8,0,16.2,4.3,16.2,14.4v2.8c0,0.7-0.5,1.4-1.2,1.6l-6.7,1.8c-1,0.3-2.1-0.5-2.1-1.6v-2.8c0-4.9-1.6-7-7.5-7h-13.6
					c-5.9,0-7.6,2.1-7.6,7v35c0,4.9,1.7,7,7.6,7h13.6c5.9,0,7.5-2.1,7.5-7v-3.3c0-1.1,1.1-1.9,2.1-1.6l6.7,2
					c0.7,0.2,1.2,0.8,1.2,1.6V125.9z"/>
				<path class="st13" d="M302,125.9c0,10.1-5,14.4-15.9,14.4h-31.3c-0.9,0-1.6-0.7-1.6-1.6V74.6c0-0.9,0.7-1.6,1.6-1.6h31.3
					c10.8,0,15.9,4.2,15.9,14.4V125.9z M292,89.1c0-4.9-1.6-7-7.5-7h-21.4v49h21.4c5.9,0,7.5-2.1,7.5-7V89.1z"/>
			</g>
			<path class="st24" d="M165,34.2c-0.6-0.2-1.2,0-1.5,0.5l-31.9,58.2c-1.1,2.1-0.8,4.6,0.8,6.3l15.3,16.2l18-79.9
				C165.9,35,165.5,34.4,165,34.2z"/>
			<path class="st25" d="M168.9,105.6l-15.3-16.2l-18,79.9c-0.1,0.6,0.2,1.2,0.7,1.4c0.1,0.1,0.3,0.1,0.4,0.1c0.4,0,0.8-0.2,1-0.6
				l31.9-58.2C170.9,109.9,170.6,107.3,168.9,105.6z"/>
		</g>
		<g>
			<path class="st13" d="M97.6,18.5c0.7,0,1.2-0.1,1.7-0.2s1-0.3,1.4-0.4v-3.1h-2c-0.3,0-0.5-0.1-0.7-0.2c-0.2-0.2-0.3-0.4-0.3-0.6
				v-2.6h7.3V20c-0.5,0.4-1.1,0.7-1.6,1c-0.6,0.3-1.2,0.5-1.8,0.7c-0.6,0.2-1.3,0.3-2,0.4c-0.7,0.1-1.5,0.1-2.3,0.1
				c-1.5,0-2.9-0.3-4.2-0.8c-1.3-0.5-2.4-1.3-3.3-2.2c-0.9-0.9-1.7-2-2.2-3.3c-0.5-1.3-0.8-2.7-0.8-4.2c0-1.5,0.3-2.9,0.8-4.2
				s1.2-2.4,2.2-3.3c0.9-0.9,2.1-1.6,3.4-2.2c1.3-0.5,2.8-0.8,4.5-0.8c0.9,0,1.6,0.1,2.4,0.2c0.7,0.1,1.4,0.3,2.1,0.6
				c0.6,0.2,1.2,0.5,1.7,0.9c0.5,0.3,1,0.7,1.4,1.1l-1.4,2.1c-0.1,0.2-0.3,0.4-0.5,0.5s-0.4,0.2-0.6,0.2c-0.3,0-0.6-0.1-0.9-0.3
				c-0.4-0.2-0.7-0.4-1.1-0.6c-0.3-0.2-0.7-0.3-1-0.4c-0.3-0.1-0.7-0.2-1.1-0.2c-0.4,0-0.8-0.1-1.3-0.1c-0.9,0-1.7,0.2-2.4,0.5
				S93.7,6.4,93.2,7c-0.5,0.6-0.9,1.3-1.2,2.1c-0.3,0.8-0.4,1.7-0.4,2.7c0,1.1,0.1,2,0.4,2.9c0.3,0.8,0.7,1.6,1.2,2.1
				c0.5,0.6,1.2,1,1.9,1.3C95.9,18.4,96.7,18.5,97.6,18.5z"/>
			<path class="st13" d="M118.5,21.9h-4.8V1.5h4.8V21.9z"/>
			<path class="st13" d="M142,1.5v3.8h-5.7v16.7h-4.7V5.3h-5.8V1.5H142z"/>
			<path class="st13" d="M153.8,18.2h7.6v3.8h-12.3V1.5h4.7V18.2z"/>
			<path class="st13" d="M188.5,21.9h-3.7c-0.4,0-0.8-0.1-1-0.3s-0.5-0.4-0.6-0.7l-1.2-3.6h-7.8l-1.2,3.6c-0.1,0.3-0.3,0.5-0.5,0.7
				c-0.3,0.2-0.6,0.3-1,0.3h-3.7l7.9-20.4h4.9L188.5,21.9z M175.4,14.1h5.6l-1.9-5.6c-0.1-0.4-0.3-0.8-0.4-1.3
				c-0.2-0.5-0.3-1-0.5-1.6c-0.1,0.6-0.3,1.1-0.5,1.6c-0.2,0.5-0.3,0.9-0.4,1.3L175.4,14.1z"/>
			<path class="st13" d="M195.4,21.9V1.5h7.5c1.4,0,2.6,0.1,3.6,0.4c1,0.3,1.8,0.6,2.4,1.1c0.6,0.5,1.1,1.1,1.4,1.7s0.4,1.4,0.4,2.3
				c0,0.5-0.1,0.9-0.2,1.3s-0.3,0.8-0.6,1.2c-0.3,0.4-0.6,0.7-1.1,1s-1,0.6-1.6,0.8c1.3,0.3,2.3,0.9,3,1.6c0.6,0.7,1,1.7,1,2.8
				c0,0.9-0.2,1.7-0.5,2.4c-0.3,0.7-0.8,1.4-1.5,2c-0.6,0.6-1.5,1-2.4,1.3s-2,0.5-3.3,0.5H195.4z M200.1,10.1h2.5c0.5,0,1,0,1.4-0.1
				c0.4-0.1,0.8-0.2,1.1-0.4c0.3-0.2,0.5-0.4,0.7-0.8s0.2-0.7,0.2-1.2c0-0.5-0.1-0.9-0.2-1.2s-0.3-0.6-0.6-0.8s-0.6-0.3-1-0.4
				c-0.4-0.1-0.8-0.1-1.4-0.1h-2.8V10.1z M200.1,13.3v5.1h3.3c0.6,0,1.1-0.1,1.5-0.2c0.4-0.2,0.7-0.4,0.9-0.6
				c0.2-0.3,0.4-0.5,0.5-0.9c0.1-0.3,0.1-0.6,0.1-1c0-0.4,0-0.7-0.1-1c-0.1-0.3-0.3-0.6-0.5-0.8c-0.2-0.2-0.6-0.4-0.9-0.5
				c-0.4-0.1-0.9-0.2-1.5-0.2H200.1z"/>
		</g>
	</g>
</g>
<g id="filenames">
</g>
</svg>
